<svg width="800" height="207" viewBox="0 0 800 207" fill="none" xmlns="http://www.w3.org/2000/svg">
<path fill-rule="evenodd" clip-rule="evenodd" d="M155.063 157.759C180.214 147.716 203.517 132.097 228.48 121.424C346.873 70.7951 479.303 137.73 603.673 114.143C702.738 95.36 789.513 20.4163 888.892 4.06621C940.75 -4.46724 993.49 3.44711 1045.82 1.17345C1098.15 -1.09658 1212.45 306.734 1212.06 490.534C1121.85 479.626 1023.77 539.964 933.427 549.254C522.034 591.555 95.6434 599.996 -315.919 560.058C-322.994 559.374 -311.11 462.823 -315.919 456.679C-320.599 450.702 -320.987 441.778 -320.999 433.653C-321.128 355.219 -309.943 276.8 -288.278 202.631C-270.726 142.556 -256.884 104.625 -198.763 100.483C-161.384 97.8147 -124.291 113.962 -89.7656 128.795C-11.168 162.56 75.8347 189.405 155.063 157.759Z" fill="#B79443"/>
</svg>
